Reshaping multiple variables into tidy (long) data
…
I think this is a very good solution as it’s easy to understand and debug. See below for a step by step explanation of these lines.

It is, however, possible to achieve the same result just by using clever arguments inside the pivot_longer() (thank you Lisa for teaching me this):

Clever solution

# same result as above but just pivot_longer()
widedata %>% 
  pivot_longer(-id,
               names_to = c(".value", "number"),
               names_pattern = "(.+)_(.+)")

## # A tibble: 36 × 4
##       id number  time outcome
##    <dbl> <chr>  <dbl>   <dbl>
##  1     1 1          1       1
##  2     1 2          2       2
##  3     1 3          3       3
##  4     1 4          4       4
##  5     2 1          1       1
##  6     2 2          2       2
##  7     2 3          3       3
##  8     2 4          4       4
##  9     3 1          1       1
## 10     3 2          2       2
## # … with 26 more rows

Simple solution step by step

Combine all into two columns first

pivot_longer(-id) combines all columns except id into two columns (name and value):

widedata %>% 
  pivot_longer(-id)

## # A tibble: 72 × 3
##       id name      value
##    <dbl> <chr>     <dbl>
##  1     1 time_1        1
##  2     1 time_2        2
##  3     1 time_3        3
##  4     1 time_4        4
##  5     1 outcome_1     1
##  6     1 outcome_2     2
##  7     1 outcome_3     3
##  8     1 outcome_4     4
##  9     2 time_1        1
## 10     2 time_2        2
## # … with 62 more rows
…
## # A tibble: 1 × 4
##      id name  stage value
##   <dbl> <chr> <chr> <dbl>
## 1     1 time  1         1

pivot_wider() so that each variable has its own column

And the final step of this solution is pivot_wider() which takes the multiple variables that pivot_longer() combined into name and puts them into their own columns:

widedata %>% 
  pivot_longer(-id) %>% 
  separate(name, into = c("name", "stage"), sep = "_") %>% 
  pivot_wider(names_from = "name", values_from = "value")

## # A tibble: 36 × 4
##       id stage  time outcome
##    <dbl> <chr> <dbl>   <dbl>
##  1     1 1         1       1
##  2     1 2         2       2
##  3     1 3         3       3
##  4     1 4         4       4
##  5     2 1         1       1
##  6     2 2         2       2
##  7     2 3         3       3
##  8     2 4         4       4
##  9     3 1         1       1
## 10     3 2         2       2
## # … with 26 more rows
…
